﻿{
  "Patient_FName": "Mary",
  "Patient_LName": "Jane",
  "Patient_DOB": "2007-05-09T09:42:48.5822278+05:30",
  "DateOfService": "2017-05-04T09:42:48.5822278+05:30",
  "Patient_SelfPay": false,
  "RMQID": "5d421299-e49d-46e2-bf94-3785b3868aa1",
  "ProductBarCodes": [ "451627381", "38421978" ],
  "PatientSigned": true,
  "PatientSignedDate": "2017-05-09T09:42:48.5827283+05:30",
  "PhysicianSigned": true,
  "PhysicianSignedDate": "2017-05-09T09:42:48.5832292+05:30",
  "PatientSignedRelationship": null,
  "PhysicianNPICode": null,
  "PhysicianFirstName": null,
  "PhysicianLastName": null,
  "ICD9Codes": null,
  "MRNNumber": null,
  "BcsSubInventoryId": null,
  "SourceEntity": 1,
  "SourceEntityID": 34512,
  "DocumentSource": 1,
  "DocumentType": 1,
  "DocumentIDs": [ "591358351c2e4a098c85bc5d" ]
}